module be-omnistroke

go 1.22.1

require (
	github.com/golang-jwt/jwt/v5 v5.2.1
	github.com/google/uuid v1.6.0
	github.com/h2non/bimg v1.1.9
	github.com/jackc/pgx/v5 v5.6.0
	github.com/joho/godotenv v1.5.1
)

require (
	github.com/jackc/pgpassfile v1.0.0 // indirect
	github.com/jackc/pgservicefile v0.0.0-20221227161230-091c0ba34f0a // indirect
	github.com/jackc/puddle/v2 v2.2.1 // indirect
	github.com/payOSHQ/payos-lib-golang v1.0.5 // indirect
	golang.org/x/crypto v0.17.0 // indirect
	golang.org/x/sync v0.1.0 // indirect
	golang.org/x/text v0.14.0 // indirect
)
